…
- JSON array indexing is 0-based, in contrast to 1-based *R* indexing.
- In developing the JSON query, I spent quite a bit of time viewing
  results using `listviewer::jsonedit()`, e.g.,

    ```{r, eval = FALSE}
    listviewer::jsonedit(j_query(Crime2013, "[0][*]"))
    ```

The objects of interest are polygon coordinates nested deeply in the
JSON, at the location implied by JMESPath. One polygon is at

```{r, eval = FALSE}
query <- "x.calls[9].args[0][0][0][0]"
j_pivot(json, query, as = "tibble")
## # A tibble: 27 × 2
##      lng   lat
##    <dbl> <dbl>
##  1 -43.3 -22.9
##  2 -43.3 -22.9
##  3 -43.3 -22.9
##  4 -43.3 -22.9
##  5 -43.3 -22.9
##  6 -43.3 -22.9
##  7 -43.3 -22.9
##  8 -43.3 -22.9
##  9 -43.3 -22.9
## 10 -43.3 -22.9
## # ℹ 17 more rows
## # ℹ Use `print(n = ...)` to see more rows
```

There are 3618 of these polygons, and they are extracted by using a
wild-card `*` in place of an index `0` at a particular place in the
path.

```{r, eval = FALSE}
query <- "x.calls[9].args[0][*][0][0]"
j_pivot(json, query, as = "tibble")
## # A tibble: 3,618 × 2
##    lng        lat       
##    <list>     <list>    
##  1 <dbl [27]> <dbl [27]>
##  2 <dbl [6]>  <dbl [6]> 
##  3 <dbl [5]>  <dbl [5]> 
##  4 <dbl [42]> <dbl [42]>
##  5 <dbl [6]>  <dbl [6]> 
##  6 <dbl [8]>  <dbl [8]> 
##  7 <dbl [4]>  <dbl [4]> 
##  8 <dbl [6]>  <dbl [6]> 
##  9 <dbl [13]> <dbl [13]>
## 10 <dbl [12]> <dbl [12]>
## # ℹ 3,608 more rows
## # ℹ Use `print(n = ...)` to see more rows
```
…
