Processing NDJSON • rjsoncons
…
system.time({
    tbl <- j_pivot(
        ndjson_file, '{id: id, type: type}',
        as = "tibble", verbose = TRUE
    )
})
## processing 26583 records
## processing 62939 records
## processing 100533 records
## processing 136460 records
##    user  system elapsed 
##  13.730   0.095  13.827

tbl
## # A tibble: 172,049 × 2
##    id          type       
##    <chr>       <chr>      
##  1 26939254345 DeleteEvent
##  2 26939254358 PushEvent  
##  3 26939254361 CreateEvent
##  4 26939254365 CreateEvent
##  5 26939254366 PushEvent  
##  6 26939254367 PushEvent  
##  7 26939254379 PushEvent  
##  8 26939254380 IssuesEvent
##  9 26939254382 PushEvent  
## 10 26939254383 PushEvent  
## # ℹ 172,039 more rows
…
