Examples • rjsoncons
…
j_query(json, path) |>
    listviewer::jsonedit()

Finally, run j_pivot() to transform the JSON to a
tibble.

j_pivot(json, path, as = "tibble")

The result is

## # A tibble: 48 × 6
##    date       he    bc_import bc_export matl_import matl_export
##    <chr>      <chr>     <int>     <int>       <int>       <int>
##  1 2024-07-10 4           750       950         295         300
##  2 2024-07-10 5           750       950         295         300
##  3 2024-07-10 6           750       950         295         300
##  4 2024-07-10 7           750       950         295         300
##  5 2024-07-10 8           750       950         295         300
##  6 2024-07-10 9           750       950         295         300
##  7 2024-07-10 10          750       950         295         300
##  8 2024-07-10 11          750       950         295         300
##  9 2024-07-10 12          750       950         295         300
## 10 2024-07-10 13          750       950         295         300
## # ℹ 38 more rows
## # ℹ Use `print(n = ...)` to see more rows
…
JSON array indexing is 0-based, in contrast to 1-based R
indexing.

In developing the JSON query, I spent quite a bit of time viewing
results using listviewer::jsonedit(), e.g.,

listviewer::jsonedit(j_query(Crime2013, "[0][*]"))

The objects of interest are polygon coordinates nested deeply in the
JSON, at the location implied by JMESPath. One polygon is at

query <- "x.calls[9].args[0][0][0][0]"
j_pivot(json, query, as = "tibble")
## # A tibble: 27 × 2
##      lng   lat
##    <dbl> <dbl>
##  1 -43.3 -22.9
##  2 -43.3 -22.9
##  3 -43.3 -22.9
##  4 -43.3 -22.9
##  5 -43.3 -22.9
##  6 -43.3 -22.9
##  7 -43.3 -22.9
##  8 -43.3 -22.9
##  9 -43.3 -22.9
## 10 -43.3 -22.9
## # ℹ 17 more rows
## # ℹ Use `print(n = ...)` to see more rows

There are 3618 of these polygons, and they are extracted by using a
wild-card * in place of an index 0 at a
particular place in the path.

query <- "x.calls[9].args[0][*][0][0]"
j_pivot(json, query, as = "tibble")
## # A tibble: 3,618 × 2
##    lng        lat       
##    <list>     <list>    
##  1 <dbl [27]> <dbl [27]>
##  2 <dbl [6]>  <dbl [6]> 
##  3 <dbl [5]>  <dbl [5]> 
##  4 <dbl [42]> <dbl [42]>
##  5 <dbl [6]>  <dbl [6]> 
##  6 <dbl [8]>  <dbl [8]> 
##  7 <dbl [4]>  <dbl [4]> 
##  8 <dbl [6]>  <dbl [6]> 
##  9 <dbl [13]> <dbl [13]>
## 10 <dbl [12]> <dbl [12]>
## # ℹ 3,608 more rows
## # ℹ Use `print(n = ...)` to see more rows
…
There are 492 nodes in this institution.

nodes
#> # A tibble: 492 × 3
#>    id        de                                                            en   
#>    <chr>     <chr>                                                         <chr>
#>  1 10282     "Universität zu Köln"                                         Univ…
#>  2 14036     "Fakultät 1: Wirtschafts- und Sozialwissenschaftliche Fakult… Facu…
#>  3 176896857 "Cologne Graduate School in Management, \rEconomics and Soci… Colo…
#>  4 555102855 "Cologne Institute for Information Systems (CIIS)"            Colo…
#>  5 537375237 "ECONtribute: Markets & Public Policy"                        ECON…
#>  6 439201502 "Fachbereich Volkswirtschaftslehre"                           Econ…
#>  7 202057753 "Center for Macroeconomic Research (CMR)"                     Cent…
#>  8 228480345 "Seminar für Energiewissenschaft"                             Chai…
#>  9 237641982 "Seminar für Experimentelle Wirtschafts- und Verhaltensforsc… Semi…
#> 10 352878120 "Seminar für Industrieökonomik und angewandte Mikroökonometr… Indu…
#> # ℹ 482 more rows
…
The matrix of edges, with columns from and
to, is then

edges <- edgelist(id, children_per_node)
edges
#> # A tibble: 491 × 2
#>    from      to       
#>    <chr>     <chr>    
#>  1 10282     14036    
#>  2 14036     176896857
#>  3 14036     555102855
#>  4 14036     537375237
#>  5 14036     439201502
#>  6 439201502 202057753
#>  7 439201502 228480345
#>  8 439201502 237641982
#>  9 439201502 352878120
#> 10 439201502 417277679
#> # ℹ 481 more rows
…
